^C:\USERS\IRAZY.LAPTOP-2DA2ESSA\DOCUMENTS\C++ PROJECTS\АИСД\GRAHAMPASS\GRAHAMPASS\GRAHAMPASS.CPP
C:\USERS\IRAZY.LAPTOP-2DA2ESSA\DOCUMENTS\C++ PROJECTS\АиСД\GRAHAMPASS\GRAHAMPASS\DEBUG\VC142.PDB
C:\USERS\IRAZY.LAPTOP-2DA2ESSA\DOCUMENTS\C++ PROJECTS\АиСД\GRAHAMPASS\GRAHAMPASS\DEBUG\VC142.IDB
C:\USERS\IRAZY.LAPTOP-2DA2ESSA\DOCUMENTS\C++ PROJECTS\АиСД\GRAHAMPASS\GRAHAMPASS\DEBUG\GRAHAMPASS.OBJ
